4 Data handling in polar regions | Challenges working with data in polar regions
…
That is all the “geometry lookup” work required done. We can produce an index between raster cell and polygon in a simple table.

cell <- tibble::tibble(polygon = raster::values(raster_polys), cell = 1:ncell(raster_polys))
cell

## # A tibble: 1,036,800 x 2
##    polygon  cell
##      <dbl> <int>
##  1      NA     1
##  2      NA     2
##  3      NA     3
##  4      NA     4
##  5      NA     5
##  6      NA     6
##  7      NA     7
##  8      NA     8
##  9      NA     9
## 10      NA    10
## # … with 1,036,790 more rows

## we don't need very cell, the most southerly region is NA as is anything north of 20S
cell <- dplyr::filter(cell, !is.na(polygon))
cell

## # A tibble: 230,383 x 2
##    polygon   cell
##      <dbl>  <int>
##  1      12 691201
##  2      12 691202
##  3      12 691203
##  4      12 691204
##  5      12 691205
##  6      12 691206
##  7      12 691207
##  8      12 691208
##  9      12 691209
## 10      12 691210
## # … with 230,373 more rows
…
